module barApi

go 1.17

require (
	github.com/gofiber/fiber/v2 v2.22.0
	github.com/golang/mock v1.6.0
	github.com/joho/godotenv v1.4.0
	github.com/pact-foundation/pact-go v1.6.7
	github.com/phayes/freeport v0.0.0-20180830031419-95f893ade6f2
	github.com/stretchr/testify v1.7.0
)

require (
	github.com/andybalholm/brotli v1.0.2 // indirect
	github.com/davecgh/go-spew v1.1.1 // indirect
	github.com/hashicorp/go-version v1.3.0 // indirect
	github.com/hashicorp/logutils v0.0.0-20150609070431-0dc08b1671f3 // indirect
	github.com/klauspost/compress v1.13.4 // indirect
	github.com/pmezard/go-difflib v1.0.0 // indirect
	github.com/valyala/bytebufferpool v1.0.0 // indirect
	github.com/valyala/fasthttp v1.31.0 // indirect
	github.com/valyala/tcplisten v1.0.0 // indirect
	golang.org/x/sys v0.0.0-20210514084401-e8d321eab015 // indirect
	gopkg.in/yaml.v3 v3.0.0-20200313102051-9f266ea9e77c // indirect
)
